socks5://43.224.8.124:6667
socks5://58.18.36.61:7302
socks5://185.87.121.5:8975
socks5://43.128.36.71:3389
socks5://123.182.247.247:7302
socks5://65.21.131.244:10801
socks5://211.140.228.229:7302
socks5://34.95.224.52:443
socks5://60.12.215.23:7302
socks5://62.171.144.238:5566
socks5://166.62.83.60:17239
socks5://51.222.12.245:10084
socks5://111.30.79.44:7302
socks5://159.223.107.2:54606
socks5://122.4.205.61:7300
socks5://118.242.27.66:7300
socks5://58.18.36.61:7302
socks5://195.2.71.201:16072
